{
  "version": 2,
  "cli": {
    "defaultCollection": "@nrwl/react"
  },
  "defaultProject": "continuous-l10n",
  "generators": {
    "@nrwl/react": {
      "application": {
        "style": "scss",
        "linter": "eslint",
        "babel": true,
        "pascalCaseFiles": true
      },
      "component": {
        "style": "scss",
        "pascalCaseFiles": true,
        "pascalCaseDirectory": true
      },
      "library": {
        "style": "scss",
        "linter": "eslint",
        "pascalCaseFiles": true
      }
    }
  },
  "projects": {
    "continuous-l10n": "apps/continuous-l10n",
    "deck-components": "libs/deck-components",
    "prism": "libs/prism",
    "spectacle-theme-mlfbvr": "libs/spectacle-theme-mlfbvr"
  }
}
